// Jest Snapshot v1, https://goo.gl/fbAQLP

exports[`Snap shot test for dish should match with snapshot 1`] = `
<div
  style={
    Object {
      "opacity": 0,
      "transitionDelay": "0ms",
      "transitionDuration": "500ms",
      "transitionProperty": "opacity",
      "transitionTimingFunction": "ease",
      "willChange": "opacity",
    }
  }
>
  <div
    style={
      Object {
        "transform": "scale(0.5) translateY(-50%)",
        "transitionDelay": "0ms",
        "transitionDuration": "500ms",
        "transitionProperty": "transform",
        "transitionTimingFunction": "ease",
        "willChange": "transform",
      }
    }
  >
    <div
      className="card"
      data-testid="item-card"
    >
      <img
        alt="Agumbe Tang"
        className="card-img"
        src="http://localhost:3001//assets/images/alberto.png"
      />
      <div
        className="card-body"
      >
        <h5
          className="card-title"
        >
          Agumbe Tang
        </h5>
        <h6
          className="card-subtitle"
        >
          Chief Taste Officer
        </h6>
        <p
          className="card-text"
        >
          Blessed with the most discerning gustatory sense, Agumbe, our CFO, personally ensures that every dish that we serve meets his exacting tastes. Our chefs dread the tongue lashing that ensues if their dish does not meet his exacting standards. He lives by his motto, You click only if you survive my lick.
        </p>
      </div>
    </div>
  </div>
</div>
`;
